{
  "artists": {
    "href": "https://api.spotify.com/v1/search?query=Travis&type=artist&offset=0&limit=2",
    "items": [
      {
        "external_urls": {
          "spotify": "https://open.spotify.com/artist/0Y5tJX1MQlPlqiwlOH1tJY"
        },
        "followers": {
          "href": null,
          "total": 17490594
        },
        "genres": [
          "rap",
          "slap house"
        ],
        "href": "https://api.spotify.com/v1/artists/0Y5tJX1MQlPlqiwlOH1tJY",
        "id": "0Y5tJX1MQlPlqiwlOH1tJY",
        "images": [
          {
            "height": 640,
            "url": "https://i.scdn.co/image/ab6761610000e5ebe707b87e3f65997f6c09bfff",
            "width": 640
          },
          {
            "height": 320,
            "url": "https://i.scdn.co/image/ab67616100005174e707b87e3f65997f6c09bfff",
            "width": 320
          },
          {
            "height": 160,
            "url": "https://i.scdn.co/image/ab6761610000f178e707b87e3f65997f6c09bfff",
            "width": 160
          }
        ],
        "name": "Artist One",
        "popularity": 94,
        "type": "artist",
        "uri": "spotify:artist:0Y5tJX1MQlPlqiwlOH1tJY"
      },
      {
        "external_urls": {
          "spotify": "https://open.spotify.com/artist/4exLIFE8sISLr28sqG1qNX"
        },
        "followers": {
          "href": null,
          "total": 325956
        },
        "genres": [
          "rap rock"
        ],
        "href": "https://api.spotify.com/v1/artists/4exLIFE8sISLr28sqG1qNX",
        "id": "4exLIFE8sISLr28sqG1qNX",
        "images": [
          {
            "height": 640,
            "url": "https://i.scdn.co/image/ab6761610000e5eb217f81a86110ebc7c0e43fb3",
            "width": 640
          },
          {
            "height": 320,
            "url": "https://i.scdn.co/image/ab67616100005174217f81a86110ebc7c0e43fb3",
            "width": 320
          },
          {
            "height": 160,
            "url": "https://i.scdn.co/image/ab6761610000f178217f81a86110ebc7c0e43fb3",
            "width": 160
          }
        ],
        "name": "Artist Two",
        "popularity": 82,
        "type": "artist",
        "uri": "spotify:artist:4exLIFE8sISLr28sqG1qNX"
      }
    ],
    "limit": 2,
    "next": "https://api.spotify.com/v1/search?query=Travis&type=artist&offset=2&limit=2",
    "offset": 0,
    "previous": null,
    "total": 1687
  },
  "tracks": {
    "href": "https://api.spotify.com/v1/search?query=Travis&type=track&offset=0&limit=2",
    "items": [
      {
        "album": {
          "album_type": "single",
          "artists": [
            {
              "external_urls": {
                "spotify": "https://open.spotify.com/artist/0Y5tJX1MQlPlqiwlOH1tJY"
              },
              "href": "https://api.spotify.com/v1/artists/0Y5tJX1MQlPlqiwlOH1tJY",
              "id": "0Y5tJX1MQlPlqiwlOH1tJY",
              "name": "Travis Scott",
              "type": "artist",
              "uri": "spotify:artist:0Y5tJX1MQlPlqiwlOH1tJY"
            },
            {
              "external_urls": {
                "spotify": "https://open.spotify.com/artist/2o08sCWF5yyo2G4DCiT7T9"
              },
              "href": "https://api.spotify.com/v1/artists/2o08sCWF5yyo2G4DCiT7T9",
              "id": "2o08sCWF5yyo2G4DCiT7T9",
              "name": "HVME",
              "type": "artist",
              "uri": "spotify:artist:2o08sCWF5yyo2G4DCiT7T9"
            }
          ],
          "available_markets": [
            "AD",
            "AE",
            "AG",
            "AL",
            "AM",
            "AO",
            "AR",
            "AT",
            "AU",
            "AZ",
            "BA",
            "BB",
            "BD",
            "BE",
            "BF",
            "BG",
            "BH",
            "BI",
            "BJ",
            "BN",
            "BO",
            "BR",
            "BS",
            "BT",
            "BW",
            "BY",
            "BZ",
            "CA",
            "CH",
            "CI",
            "CL",
            "CM",
            "CO",
            "CR",
            "CV",
            "CW",
            "CY",
            "CZ",
            "DE",
            "DJ",
            "DK",
            "DM",
            "DO",
            "DZ",
            "EC",
            "EE",
            "EG",
            "ES",
            "FI",
            "FJ",
            "FM",
            "FR",
            "GA",
            "GB",
            "GD",
            "GE",
            "GH",
            "GM",
            "GN",
            "GQ",
            "GR",
            "GT",
            "GW",
            "GY",
            "HK",
            "HN",
            "HR",
            "HT",
            "HU",
            "ID",
            "IE",
            "IL",
            "IN",
            "IS",
            "IT",
            "JM",
            "JO",
            "JP",
            "KE",
            "KG",
            "KH",
            "KI",
            "KM",
            "KN",
            "KR",
            "KW",
            "KZ",
            "LA",
            "LB",
            "LC",
            "LI",
            "LK",
            "LR",
            "LS",
            "LT",
            "LU",
            "LV",
            "MA",
            "MC",
            "MD",
            "ME",
            "MG",
            "MH",
            "MK",
            "ML",
            "MN",
            "MO",
            "MR",
            "MT",
            "MU",
            "MV",
            "MW",
            "MX",
            "MY",
            "MZ",
            "NA",
            "NE",
            "NG",
            "NI",
            "NL",
            "NO",
            "NP",
            "NR",
            "NZ",
            "OM",
            "PA",
            "PE",
            "PG",
            "PH",
            "PK",
            "PL",
            "PS",
            "PT",
            "PW",
            "PY",
            "QA",
            "RO",
            "RS",
            "RU",
            "RW",
            "SA",
            "SB",
            "SC",
            "SE",
            "SG",
            "SI",
            "SK",
            "SL",
            "SM",
            "SN",
            "SR",
            "ST",
            "SV",
            "SZ",
            "TD",
            "TG",
            "TH",
            "TL",
            "TN",
            "TO",
            "TR",
            "TT",
            "TV",
            "TW",
            "TZ",
            "UA",
            "UG",
            "US",
            "UY",
            "UZ",
            "VC",
            "VN",
            "VU",
            "WS",
            "XK",
            "ZA",
            "ZM",
            "ZW"
          ],
          "external_urls": {
            "spotify": "https://open.spotify.com/album/3SdFuYwyWoq7kuaHdTDcyD"
          },
          "href": "https://api.spotify.com/v1/albums/3SdFuYwyWoq7kuaHdTDcyD",
          "id": "3SdFuYwyWoq7kuaHdTDcyD",
          "images": [
            {
              "height": 640,
              "url": "https://i.scdn.co/image/ab67616d0000b2739109b0425fb5b36284a24891",
              "width": 640
            },
            {
              "height": 300,
              "url": "https://i.scdn.co/image/ab67616d00001e029109b0425fb5b36284a24891",
              "width": 300
            },
            {
              "height": 64,
              "url": "https://i.scdn.co/image/ab67616d000048519109b0425fb5b36284a24891",
              "width": 64
            }
          ],
          "name": "Track One",
          "release_date": "2021-01-15",
          "release_date_precision": "day",
          "total_tracks": 1,
          "type": "album",
          "uri": "spotify:album:3SdFuYwyWoq7kuaHdTDcyD"
        },
        "artists": [
          {
            "external_urls": {
              "spotify": "https://open.spotify.com/artist/0Y5tJX1MQlPlqiwlOH1tJY"
            },
            "href": "https://api.spotify.com/v1/artists/0Y5tJX1MQlPlqiwlOH1tJY",
            "id": "0Y5tJX1MQlPlqiwlOH1tJY",
            "name": "Travis Scott",
            "type": "artist",
            "uri": "spotify:artist:0Y5tJX1MQlPlqiwlOH1tJY"
          },
          {
            "external_urls": {
              "spotify": "https://open.spotify.com/artist/2o08sCWF5yyo2G4DCiT7T9"
            },
            "href": "https://api.spotify.com/v1/artists/2o08sCWF5yyo2G4DCiT7T9",
            "id": "2o08sCWF5yyo2G4DCiT7T9",
            "name": "HVME",
            "type": "artist",
            "uri": "spotify:artist:2o08sCWF5yyo2G4DCiT7T9"
          }
        ],
        "available_markets": [
          "AD",
          "AE",
          "AG",
          "AL",
          "AM",
          "AO",
          "AR",
          "AT",
          "AU",
          "AZ",
          "BA",
          "BB",
          "BD",
          "BE",
          "BF",
          "BG",
          "BH",
          "BI",
          "BJ",
          "BN",
          "BO",
          "BR",
          "BS",
          "BT",
          "BW",
          "BY",
          "BZ",
          "CA",
          "CH",
          "CI",
          "CL",
          "CM",
          "CO",
          "CR",
          "CV",
          "CW",
          "CY",
          "CZ",
          "DE",
          "DJ",
          "DK",
          "DM",
          "DO",
          "DZ",
          "EC",
          "EE",
          "EG",
          "ES",
          "FI",
          "FJ",
          "FM",
          "FR",
          "GA",
          "GB",
          "GD",
          "GE",
          "GH",
          "GM",
          "GN",
          "GQ",
          "GR",
          "GT",
          "GW",
          "GY",
          "HK",
          "HN",
          "HR",
          "HT",
          "HU",
          "ID",
          "IE",
          "IL",
          "IN",
          "IS",
          "IT",
          "JM",
          "JO",
          "JP",
          "KE",
          "KG",
          "KH",
          "KI",
          "KM",
          "KN",
          "KR",
          "KW",
          "KZ",
          "LA",
          "LB",
          "LC",
          "LI",
          "LK",
          "LR",
          "LS",
          "LT",
          "LU",
          "LV",
          "MA",
          "MC",
          "MD",
          "ME",
          "MG",
          "MH",
          "MK",
          "ML",
          "MN",
          "MO",
          "MR",
          "MT",
          "MU",
          "MV",
          "MW",
          "MX",
          "MY",
          "MZ",
          "NA",
          "NE",
          "NG",
          "NI",
          "NL",
          "NO",
          "NP",
          "NR",
          "NZ",
          "OM",
          "PA",
          "PE",
          "PG",
          "PH",
          "PK",
          "PL",
          "PS",
          "PT",
          "PW",
          "PY",
          "QA",
          "RO",
          "RS",
          "RU",
          "RW",
          "SA",
          "SB",
          "SC",
          "SE",
          "SG",
          "SI",
          "SK",
          "SL",
          "SM",
          "SN",
          "SR",
          "ST",
          "SV",
          "SZ",
          "TD",
          "TG",
          "TH",
          "TL",
          "TN",
          "TO",
          "TR",
          "TT",
          "TV",
          "TW",
          "TZ",
          "UA",
          "UG",
          "US",
          "UY",
          "UZ",
          "VC",
          "VN",
          "VU",
          "WS",
          "XK",
          "ZA",
          "ZM",
          "ZW"
        ],
        "disc_number": 1,
        "duration_ms": 162802,
        "explicit": true,
        "external_ids": {
          "isrc": "USSM12100202"
        },
        "external_urls": {
          "spotify": "https://open.spotify.com/track/5uEYRdEIh9Bo4fpjDd4Na9"
        },
        "href": "https://api.spotify.com/v1/tracks/5uEYRdEIh9Bo4fpjDd4Na9",
        "id": "5uEYRdEIh9Bo4fpjDd4Na9",
        "is_local": false,
        "name": "Goosebumps - Remix",
        "popularity": 88,
        "preview_url": "https://p.scdn.co/mp3-preview/0a128a305bb16b4e731f5d839f4cdb22d247f1dd?cid=774b29d4f13844c495f206cafdad9c86",
        "track_number": 1,
        "type": "track",
        "uri": "spotify:track:5uEYRdEIh9Bo4fpjDd4Na9"
      },
      {
        "album": {
          "album_type": "single",
          "artists": [
            {
              "external_urls": {
                "spotify": "https://open.spotify.com/artist/3rWZHrfrsPBxVy692yAIxF"
              },
              "href": "https://api.spotify.com/v1/artists/3rWZHrfrsPBxVy692yAIxF",
              "id": "3rWZHrfrsPBxVy692yAIxF",
              "name": "WILLOW",
              "type": "artist",
              "uri": "spotify:artist:3rWZHrfrsPBxVy692yAIxF"
            },
            {
              "external_urls": {
                "spotify": "https://open.spotify.com/artist/4exLIFE8sISLr28sqG1qNX"
              },
              "href": "https://api.spotify.com/v1/artists/4exLIFE8sISLr28sqG1qNX",
              "id": "4exLIFE8sISLr28sqG1qNX",
              "name": "Travis Barker",
              "type": "artist",
              "uri": "spotify:artist:4exLIFE8sISLr28sqG1qNX"
            }
          ],
          "available_markets": [
            "AD",
            "AE",
            "AG",
            "AL",
            "AM",
            "AO",
            "AR",
            "AT",
            "AU",
            "AZ",
            "BA",
            "BB",
            "BD",
            "BE",
            "BF",
            "BG",
            "BH",
            "BI",
            "BJ",
            "BN",
            "BO",
            "BR",
            "BS",
            "BT",
            "BW",
            "BY",
            "BZ",
            "CA",
            "CH",
            "CI",
            "CL",
            "CM",
            "CO",
            "CR",
            "CV",
            "CW",
            "CY",
            "CZ",
            "DE",
            "DJ",
            "DK",
            "DM",
            "DO",
            "DZ",
            "EC",
            "EE",
            "EG",
            "ES",
            "FI",
            "FJ",
            "FM",
            "FR",
            "GA",
            "GB",
            "GD",
            "GE",
            "GH",
            "GM",
            "GN",
            "GQ",
            "GR",
            "GT",
            "GW",
            "GY",
            "HK",
            "HN",
            "HR",
            "HT",
            "HU",
            "ID",
            "IE",
            "IL",
            "IN",
            "IS",
            "IT",
            "JM",
            "JO",
            "JP",
            "KE",
            "KG",
            "KH",
            "KI",
            "KM",
            "KN",
            "KR",
            "KW",
            "KZ",
            "LA",
            "LB",
            "LC",
            "LI",
            "LK",
            "LR",
            "LS",
            "LT",
            "LU",
            "LV",
            "MA",
            "MC",
            "MD",
            "ME",
            "MG",
            "MH",
            "MK",
            "ML",
            "MN",
            "MO",
            "MR",
            "MT",
            "MU",
            "MV",
            "MW",
            "MX",
            "MY",
            "MZ",
            "NA",
            "NE",
            "NG",
            "NI",
            "NL",
            "NO",
            "NP",
            "NR",
            "NZ",
            "OM",
            "PA",
            "PE",
            "PG",
            "PH",
            "PK",
            "PL",
            "PS",
            "PT",
            "PW",
            "PY",
            "QA",
            "RO",
            "RS",
            "RU",
            "RW",
            "SA",
            "SB",
            "SC",
            "SE",
            "SG",
            "SI",
            "SK",
            "SL",
            "SM",
            "SN",
            "SR",
            "ST",
            "SV",
            "SZ",
            "TD",
            "TG",
            "TH",
            "TL",
            "TN",
            "TO",
            "TR",
            "TT",
            "TV",
            "TW",
            "TZ",
            "UA",
            "UG",
            "US",
            "UY",
            "UZ",
            "VC",
            "VN",
            "VU",
            "WS",
            "XK",
            "ZA",
            "ZM",
            "ZW"
          ],
          "external_urls": {
            "spotify": "https://open.spotify.com/album/4ar4zcVlbYDYKgq5wEdq0T"
          },
          "href": "https://api.spotify.com/v1/albums/4ar4zcVlbYDYKgq5wEdq0T",
          "id": "4ar4zcVlbYDYKgq5wEdq0T",
          "images": [
            {
              "height": 640,
              "url": "https://i.scdn.co/image/ab67616d0000b273e76af696460a8b3aa26bf623",
              "width": 640
            },
            {
              "height": 300,
              "url": "https://i.scdn.co/image/ab67616d00001e02e76af696460a8b3aa26bf623",
              "width": 300
            },
            {
              "height": 64,
              "url": "https://i.scdn.co/image/ab67616d00004851e76af696460a8b3aa26bf623",
              "width": 64
            }
          ],
          "name": "Track Two",
          "release_date": "2021-04-27",
          "release_date_precision": "day",
          "total_tracks": 1,
          "type": "album",
          "uri": "spotify:album:4ar4zcVlbYDYKgq5wEdq0T"
        },
        "artists": [
          {
            "external_urls": {
              "spotify": "https://open.spotify.com/artist/3rWZHrfrsPBxVy692yAIxF"
            },
            "href": "https://api.spotify.com/v1/artists/3rWZHrfrsPBxVy692yAIxF",
            "id": "3rWZHrfrsPBxVy692yAIxF",
            "name": "WILLOW",
            "type": "artist",
            "uri": "spotify:artist:3rWZHrfrsPBxVy692yAIxF"
          },
          {
            "external_urls": {
              "spotify": "https://open.spotify.com/artist/4exLIFE8sISLr28sqG1qNX"
            },
            "href": "https://api.spotify.com/v1/artists/4exLIFE8sISLr28sqG1qNX",
            "id": "4exLIFE8sISLr28sqG1qNX",
            "name": "Travis Barker",
            "type": "artist",
            "uri": "spotify:artist:4exLIFE8sISLr28sqG1qNX"
          }
        ],
        "available_markets": [
          "AD",
          "AE",
          "AG",
          "AL",
          "AM",
          "AO",
          "AR",
          "AT",
          "AU",
          "AZ",
          "BA",
          "BB",
          "BD",
          "BE",
          "BF",
          "BG",
          "BH",
          "BI",
          "BJ",
          "BN",
          "BO",
          "BR",
          "BS",
          "BT",
          "BW",
          "BY",
          "BZ",
          "CA",
          "CH",
          "CI",
          "CL",
          "CM",
          "CO",
          "CR",
          "CV",
          "CW",
          "CY",
          "CZ",
          "DE",
          "DJ",
          "DK",
          "DM",
          "DO",
          "DZ",
          "EC",
          "EE",
          "EG",
          "ES",
          "FI",
          "FJ",
          "FM",
          "FR",
          "GA",
          "GB",
          "GD",
          "GE",
          "GH",
          "GM",
          "GN",
          "GQ",
          "GR",
          "GT",
          "GW",
          "GY",
          "HK",
          "HN",
          "HR",
          "HT",
          "HU",
          "ID",
          "IE",
          "IL",
          "IN",
          "IS",
          "IT",
          "JM",
          "JO",
          "JP",
          "KE",
          "KG",
          "KH",
          "KI",
          "KM",
          "KN",
          "KR",
          "KW",
          "KZ",
          "LA",
          "LB",
          "LC",
          "LI",
          "LK",
          "LR",
          "LS",
          "LT",
          "LU",
          "LV",
          "MA",
          "MC",
          "MD",
          "ME",
          "MG",
          "MH",
          "MK",
          "ML",
          "MN",
          "MO",
          "MR",
          "MT",
          "MU",
          "MV",
          "MW",
          "MX",
          "MY",
          "MZ",
          "NA",
          "NE",
          "NG",
          "NI",
          "NL",
          "NO",
          "NP",
          "NR",
          "NZ",
          "OM",
          "PA",
          "PE",
          "PG",
          "PH",
          "PK",
          "PL",
          "PS",
          "PT",
          "PW",
          "PY",
          "QA",
          "RO",
          "RS",
          "RU",
          "RW",
          "SA",
          "SB",
          "SC",
          "SE",
          "SG",
          "SI",
          "SK",
          "SL",
          "SM",
          "SN",
          "SR",
          "ST",
          "SV",
          "SZ",
          "TD",
          "TG",
          "TH",
          "TL",
          "TN",
          "TO",
          "TR",
          "TT",
          "TV",
          "TW",
          "TZ",
          "UA",
          "UG",
          "US",
          "UY",
          "UZ",
          "VC",
          "VN",
          "VU",
          "WS",
          "XK",
          "ZA",
          "ZM",
          "ZW"
        ],
        "disc_number": 1,
        "duration_ms": 168030,
        "explicit": true,
        "external_ids": {
          "isrc": "QMJMT2103571"
        },
        "external_urls": {
          "spotify": "https://open.spotify.com/track/1QL7nSDZCwZMnbisV4KOXt"
        },
        "href": "https://api.spotify.com/v1/tracks/1QL7nSDZCwZMnbisV4KOXt",
        "id": "1QL7nSDZCwZMnbisV4KOXt",
        "is_local": false,
        "name": "t r a n s p a r e n t s o u l feat. Travis Barker",
        "popularity": 87,
        "preview_url": null,
        "track_number": 1,
        "type": "track",
        "uri": "spotify:track:1QL7nSDZCwZMnbisV4KOXt"
      }
    ],
    "limit": 2,
    "next": "https://api.spotify.com/v1/search?query=Travis&type=track&offset=2&limit=2",
    "offset": 0,
    "previous": null,
    "total": 28514
  }
}